{
	"version": 1,
	"changelists": [
		{
			"guid": "00000000000000000000000000000000",
			"description": "Default Uncontrolled Changelist",
			"files": [
				"C:/Users/ASUS/OneDrive/Документы/Unreal Projects/PingPong/Content/Megascans/3D_Assets/Forest_Terrain_tletcalfa/MI_Forest_Terrain_tletcalfa_2K.uasset",
				"C:/Users/ASUS/OneDrive/Документы/Unreal Projects/PingPong/Content/Main.umap",
				"C:/Users/ASUS/OneDrive/Документы/Unreal Projects/PingPong/Content/Bp/Blocks.uasset",
				"C:/Users/ASUS/OneDrive/Документы/Unreal Projects/PingPong/Content/Megascans/3D_Assets/Forest_Terrain_tletcalfa/S_Forest_Terrain_tletcalfa_lod3.uasset",
				"C:/Users/ASUS/OneDrive/Документы/Unreal Projects/PingPong/Content/Megascans/3D_Assets/Forest_Terrain_tletcalfa/T_Forest_Terrain_tletcalfa_2K_D.uasset",
				"C:/Users/ASUS/OneDrive/Документы/Unreal Projects/PingPong/Content/Megascans/3D_Assets/Forest_Terrain_tletcalfa/T_Forest_Terrain_tletcalfa_2K_N.uasset",
				"C:/Users/ASUS/OneDrive/Документы/Unreal Projects/PingPong/Content/Megascans/3D_Assets/Forest_Terrain_tletcalfa/T_ForestTerrain_tletcalfa_2K_DpR.uasset",
				"C:/Users/ASUS/OneDrive/Документы/Unreal Projects/PingPong/Content/Bp/Ball.uasset",
				"C:/Users/ASUS/OneDrive/Документы/Unreal Projects/PingPong/Content/Bp/Player.uasset",
				"C:/Users/ASUS/OneDrive/Документы/Unreal Projects/PingPong/Content/Megascans/Surfaces/Curated_Stone_Facade_vjqifhu/MI_Curated_Stone_Facade_vjqifhu_2K.uasset",
				"C:/Users/ASUS/OneDrive/Документы/Unreal Projects/PingPong/Content/Megascans/3D_Assets/Traditional_Lantern_xccpecydw/MI_Glass_Traditional_Lantern_xccpecydw_2K.uasset"
			]
		}
	]
}